6. praktikum
…
kiltsi %>%
  pivot_longer(., # tee andmestikust pikk tabel
               cols = grep("^[HK][0-9]{1,2}_.*$", # otsi H/K, 1-2 numbri ja alakriipsu jrjendit
                           names(kiltsi), # Kiltsi tabeli tulbanimedest
                           value = TRUE), # anna otsingu vasteks nende tulbanimedega vektor
               names_sep = "_", # lika tulbanimed alakriipsu koha pealt pooleks
               names_to = c("nimi", "klass"), # esimene pool pane tulpa "nimi" ja teine tulpa "klass"
               values_to = "vrtused") # algsed laia tabeli lahtrite vrtused pane tulpa "vrtused"

## # A tibble: 11,450 x 8
##    protokolli_id aasta kuu   pev  teema              nimi  klass vrtused 
##    <chr>         <chr> <chr> <chr> <chr>              <chr> <chr> <chr>     
##  1 26910         1881  6     12    varalised tehingud H1    ID    "2294"    
##  2 26910         1881  6     12    varalised tehingud H1    sugu  "mees"    
##  3 26910         1881  6     12    varalised tehingud H1    amet  "misnik" 
##  4 26910         1881  6     12    varalised tehingud H1    vald  "muu vald"
##  5 26910         1881  6     12    varalised tehingud H2    ID    ""        
##  6 26910         1881  6     12    varalised tehingud H2    vald  ""        
##  7 26910         1881  6     12    varalised tehingud H2    sugu  ""        
##  8 26910         1881  6     12    varalised tehingud H3    ID    ""        
##  9 26910         1881  6     12    varalised tehingud H3    vald  ""        
## 10 26910         1881  6     12    varalised tehingud H3    sugu  ""        
## # ... with 11,440 more rows

Jrgmiseks jtame andmestikust vlja need read, kus tulbas
vrtused ei ole midagi kirjas.

kiltsi %>%
  pivot_longer(.,
               cols = grep("^[HK][0-9]{1,2}_.*$", 
                           names(kiltsi), 
                           value = TRUE),
               names_sep = "_",
               names_to = c("nimi", "klass"),
               values_to = "vrtused") %>%
  filter(vrtused != "") # jta vlja read, kus tulbas "vrtused" ei ole midagi

## # A tibble: 1,888 x 8
##    protokolli_id aasta kuu   pev  teema              nimi  klass vrtused     
##    <chr>         <chr> <chr> <chr> <chr>              <chr> <chr> <chr>         
##  1 26910         1881  6     12    varalised tehingud H1    ID    2294          
##  2 26910         1881  6     12    varalised tehingud H1    sugu  mees          
##  3 26910         1881  6     12    varalised tehingud H1    amet  misnik       
##  4 26910         1881  6     12    varalised tehingud H1    vald  muu vald      
##  5 26910         1881  6     12    varalised tehingud K1    ID    2307          
##  6 26910         1881  6     12    varalised tehingud K1    sugu  naine         
##  7 26910         1881  6     12    varalised tehingud K1    vald  kohalik (Kilt~
##  8 27847         1873  6     27    varalised tehingud H1    ID    2000          
##  9 27847         1873  6     27    varalised tehingud H1    sugu  mees          
## 10 27847         1873  6     27    varalised tehingud H1    vald  kohalik (Kilt~
## # ... with 1,878 more rows
…
kiltsi %>%
  pivot_longer(.,
               cols = grep("^[HK][0-9]{1,2}_.*$", 
                           names(kiltsi), 
                           value = TRUE),
               names_sep = "_",
               names_to = c("nimi", "klass"),
               values_to = "vrtused") %>%
  filter(vrtused != "") %>%
  pivot_wider(., # tee andmestikust uuesti lai(em) tabel
              names_from = "klass", # kus lisatavate tulpade nimed vetakse tulbast "klass"
              values_from = "vrtused") # ja nende tulpade vrtused tulbast "vrtused"

## # A tibble: 602 x 10
##    protokolli_id aasta kuu   pev  teema           nimi  ID    sugu  amet  vald 
##    <chr>         <chr> <chr> <chr> <chr>           <chr> <chr> <chr> <chr> <chr>
##  1 26910         1881  6     12    varalised tehi~ H1    2294  mees  mis~ muu ~
##  2 26910         1881  6     12    varalised tehi~ K1    2307  naine <NA>  koha~
##  3 27847         1873  6     27    varalised tehi~ H1    2000  mees  <NA>  koha~
##  4 27847         1873  6     27    varalised tehi~ K1    2088  naine <NA>  koha~
##  5 27602         1874  1     8     varalised tehi~ H1    2018  mees  <NA>  koha~
##  6 27602         1874  1     8     varalised tehi~ K1    2289  mees  <NA>  koha~
##  7 27602         1874  1     8     varalised tehi~ K2    2017  mees  <NA>  koha~
##  8 27839         1890  8     13    varalised tehi~ H1    2445  mees  <NA>  koha~
##  9 27839         1890  8     13    varalised tehi~ K1    2138  mees  <NA>  koha~
## 10 28543         1873  1     26    leastumised    H1    2350  mees  <NA>  koha~
## # ... with 592 more rows
…
